…
all_city <- nest(homicide, -city_state) %>% 
  mutate(adjust_or = map(data, glmfunction))%>% 
  select(city_state, adjust_or) %>% 
  unnest  
 
as.tibble(all_city)
```

    ## # A tibble: 211 x 7
    ##    city_state     term              log_OR    OR p.value OR_lower OR_upper
    ##    <chr>          <chr>              <dbl> <dbl>   <dbl>    <dbl>    <dbl>
    ##  1 Albuquerque,NM (Intercept)       0.933  2.54  1.33e-2    1.21     5.32 
    ##  2 Albuquerque,NM victim_age       -0.0230 0.977 1.08e-3    0.964    0.991
    ##  3 Albuquerque,NM victim_racewhite  0.299  1.35  2.38e-1    0.821    2.22 
    ##  4 Albuquerque,NM victim_sexMale    0.455  1.58  1.15e-1    0.895    2.77 
    ##  5 Albuquerque,NM victim_sexUnkno…  2.10   8.19  1.86e-3    2.18    30.8  
    ##  6 Atlanta,GA     (Intercept)       0.868  2.38  2.83e-4    1.49     3.81 
    ##  7 Atlanta,GA     victim_age       -0.0118 0.988 9.81e-3    0.979    0.997
    ##  8 Atlanta,GA     victim_racewhite  0.284  1.33  3.17e-1    0.761    2.32 
    ##  9 Atlanta,GA     victim_sexMale   -0.0101 0.990 9.58e-1    0.679    1.44 
    ## 10 Baltimore,MD   (Intercept)       0.366  1.44  2.92e-2    1.04     2.01 
    ## # ... with 201 more rows
…
